{
  "resultCode": "0",
  "resultMsg": "",
  "resultObject": {
    "pageInfo": {
      "pageCount": 17,
      "pageIndex": 1,
      "pageSize": 10,
      "total": 162
    },
    "indexPrice": 10,
    "tablePrice": 10,
    "modelPrice": 10,
    "dataList": [
      {
        "srcSchemaCode": "dataopen",
        "srcModelId": 18006,
        "applyCount": 0,
        "dataSubType": "03",
        "isFavor": 0,
        "isDst": 0,
        "isEs": "0",
        "srcSysCode": "mysql",
        "dataName": "RealTime_group_06221013",
        "busiDesc": "343443",
        "srcSchemaTable": "dataopen.ai_cust_info",
        "serviceId": 101397,
        "supplyFreq": "RealTime",
        "comments": "343443",
        "dataType": "03",
        "srcDatasourceId": 85971,
        "dataCode": "RealTime_DXT_00000069",
        "dataUnit": "分",
        "commentCount": 0,
        "protocolId": 85971,
        "createStaffId": 20290,
        "protocolCode": "mysql_155_develop",
        "datasourceCode": "mysql_155_develop",
        "isCar": 0,
        "srcTableCode": "ai_cust_info",
        "stateDate": 1723172906000
      },
      {
        "srcSchemaCode": "nm",
        "srcModelId": 12361170,
        "applyCount": 0,
        "dataSubType": "03",
        "isFavor": 0,
        "isDst": 0,
        "isEs": "0",
        "srcSysCode": "gp",
        "dataName": "手机号(接入号)计数",
        "busiDesc": "用户归属映射月表",
        "srcSchemaTable": "nm.dw_svc_usr_subs_blto_mapping_ms",
        "serviceId": 101409,
        "supplyFreq": "M",
        "comments": "用户归属映射月表",
        "dataType": "03",
        "srcDatasourceId": 86227,
        "dataCode": "COUNT_connect_num",
        "dataUnit": "0",
        "commentCount": 0,
        "protocolId": 86227,
        "createStaffId": 2307,
        "protocolCode": "gp155_bigdata_nm",
        "datasourceCode": "gp155_bigdata_nm",
        "isCar": 0,
        "srcTableCode": "dw_svc_usr_subs_blto_mapping_ms",
        "stateDate": 1723171501000
      },
      {
        "srcSchemaCode": "nm",
        "srcModelId": 13371049,
        "applyCount": 0,
        "isFavor": 0,
        "isDst": 0,
        "isEs": "0",
        "srcSysCode": "gp",
        "dataName": "归属微网格品牌计数",
        "busiDesc": "统计粒度为归属微网格条件为的品牌计数",
        "srcSchemaTable": "nm.fct_wid_index_cal",
        "serviceId": 101414,
        "supplyFreq": "M",
        "dataType": "03",
        "srcDatasourceId": 86227,
        "dataCode": "count_brand_id_2609",
        "dataUnit": "无",
        "commentCount": 0,
        "protocolId": 86227,
        "createStaffId": 2307,
        "protocolCode": "gp155_bigdata_nm",
        "datasourceCode": "gp155_bigdata_nm",
        "isCar": 0,
        "srcTableCode": "fct_wid_index_cal",
        "stateDate": 1720099610000
      },
      {
        "srcSchemaCode": "nm",
        "srcModelId": 13371050,
        "applyCount": 0,
        "isFavor": 0,
        "isDst": 0,
        "isEs": "0",
        "srcSysCode": "gp",
        "dataName": "归属微网格用户类别计数",
        "busiDesc": "统计粒度为归属微网格条件为的用户类别计数",
        "srcSchemaTable": "nm.fct_wid_index_cal",
        "serviceId": 101413,
        "supplyFreq": "M",
        "dataType": "03",
        "srcDatasourceId": 86227,
        "dataCode": "count_subs_type_2611",
        "dataUnit": "无",
        "commentCount": 0,
        "protocolId": 86227,
        "createStaffId": 2307,
        "protocolCode": "gp155_bigdata_nm",
        "datasourceCode": "gp155_bigdata_nm",
        "isCar": 0,
        "srcTableCode": "fct_wid_index_cal",
        "stateDate": 1720099607000
      },
      {
        "srcSchemaCode": "nm",
        "srcModelId": 12361171,
        "applyCount": 0,
        "dataSubType": "03",
        "isFavor": 0,
        "isDst": 0,
        "isEs": "0",
        "srcSysCode": "gp",
        "dataName": "用户类别计数",
        "busiDesc": "用户归属映射月表",
        "srcSchemaTable": "nm.dw_svc_usr_subs_blto_mapping_ms",
        "serviceId": 101410,
        "supplyFreq": "M",
        "comments": "用户归属映射月表",
        "dataType": "03",
        "srcDatasourceId": 86227,
        "dataCode": "COUNT_subs_type",
        "commentCount": 0,
        "protocolId": 86227,
        "createStaffId": 2307,
        "protocolCode": "gp155_bigdata_nm",
        "datasourceCode": "gp155_bigdata_nm",
        "isCar": 0,
        "srcTableCode": "dw_svc_usr_subs_blto_mapping_ms",
        "stateDate": 1720099477000
      },
      {
        "srcSchemaCode": "nm",
        "srcModelId": 12361172,
        "applyCount": 0,
        "dataSubType": "03",
        "isFavor": 0,
        "isDst": 0,
        "isEs": "0",
        "srcSysCode": "gp",
        "dataName": "品牌计数",
        "busiDesc": "用户归属映射月表",
        "srcSchemaTable": "nm.dw_svc_usr_subs_blto_mapping_ms",
        "serviceId": 101411,
        "supplyFreq": "M",
        "comments": "用户归属映射月表",
        "dataType": "03",
        "srcDatasourceId": 86227,
        "dataCode": "COUNT_brand_id",
        "commentCount": 0,
        "protocolId": 86227,
        "createStaffId": 2307,
        "protocolCode": "gp155_bigdata_nm",
        "datasourceCode": "gp155_bigdata_nm",
        "isCar": 0,
        "srcTableCode": "dw_svc_usr_subs_blto_mapping_ms",
        "stateDate": 1720099477000
      },
      {
        "srcSchemaCode": "dataopen",
        "srcModelId": 13371039,
        "applyCount": 0,
        "isFavor": 0,
        "isDst": 0,
        "isEs": "0",
        "srcSysCode": "mysql",
        "dataName": "RealTime_group_06242013",
        "srcSchemaTable": "dataopen.ene_ctwing_smart_meter_energy",
        "serviceId": 101405,
        "supplyFreq": "RealTime",
        "dataType": "03",
        "srcDatasourceId": 85971,
        "dataCode": "current_c",
        "dataUnit": "分",
        "commentCount": 0,
        "protocolId": 85971,
        "createStaffId": 20290,
        "protocolCode": "mysql_155_develop",
        "datasourceCode": "mysql_155_develop",
        "isCar": 0,
        "srcTableCode": "ene_ctwing_smart_meter_energy",
        "stateDate": 1719478756000
      },
      {
        "srcSchemaCode": "dataopen",
        "srcModelId": 18007,
        "applyCount": 0,
        "dataSubType": "03",
        "isFavor": 0,
        "isDst": 0,
        "isEs": "0",
        "srcSysCode": "mysql",
        "dataName": "RealTime_group_06221015",
        "busiDesc": "rrrr",
        "srcSchemaTable": "dataopen.ai_cust_info",
        "serviceId": 101396,
        "supplyFreq": "H",
        "comments": "rrrr",
        "dataType": "03",
        "srcDatasourceId": 85971,
        "dataCode": "RealTime_DXT_00000070",
        "commentCount": 0,
        "protocolId": 85971,
        "createStaffId": 2307,
        "protocolCode": "mysql_155_develop",
        "datasourceCode": "mysql_155_develop",
        "isCar": 0,
        "srcTableCode": "ai_cust_info",
        "stateDate": 1719313548000
      },
      {
        "srcSchemaCode": "whalehouse_dev",
        "srcModelId": 12361130,
        "applyCount": 0,
        "dataSubType": "03",
        "isFavor": 0,
        "isDst": 0,
        "isEs": "0",
        "srcSysCode": "whalehouse",
        "dataName": "维度组织层级名称117计数",
        "busiDesc": "用户渠道明细表117",
        "srcSchemaTable": "whalehouse_dev.transaction_channel_detail",
        "serviceId": 101401,
        "supplyFreq": "F",
        "comments": "用户渠道明细表117",
        "dataType": "03",
        "srcDatasourceId": 86123,
        "dataCode": "COUNT_org_id_117",
        "commentCount": 0,
        "protocolId": 86123,
        "createStaffId": 2307,
        "protocolCode": "whalehouse_dev_117",
        "datasourceCode": "whalehouse_dev_117",
        "isCar": 0,
        "srcTableCode": "transaction_channel_detail",
        "stateDate": 1719137092000
      },
      {
        "srcSchemaCode": "dataopen",
        "srcModelId": 1027871,
        "applyCount": 0,
        "isFavor": 0,
        "isDst": 0,
        "isEs": "0",
        "srcSysCode": "mysql",
        "dataName": "RealTime_group_06221016",
        "srcSchemaTable": "dataopen.ai_cust_info",
        "serviceId": 101399,
        "supplyFreq": "RealTime",
        "dataType": "03",
        "srcDatasourceId": 85971,
        "dataCode": "end_time",
        "dataUnit": "分",
        "commentCount": 0,
        "protocolId": 85971,
        "createStaffId": 20290,
        "protocolCode": "mysql_155_develop",
        "datasourceCode": "mysql_155_develop",
        "isCar": 0,
        "srcTableCode": "ai_cust_info",
        "stateDate": 1719051006000
      }
    ],
    "labelPrice": 10
  }
}